…
## Value

A tibble with one row per stay (\`case_id\`, \`location\`, \`xmin\`,
\`xmax\`, \`duration_secs\`, \`end_inferred\`, \`terminal\`), carrying
\`attr(., "n_inferred_excluded")\`.

## Examples

``` r
summarise_journey_durations(
  complaint_example, case_col = "complaint_id",
  location_categories = "stage_change", patient_col = NULL
)
#> # A tibble: 38 × 7
#>    case_id location        xmin                xmax                duration_secs
#>    <chr>   <chr>           <dttm>              <dttm>                      <dbl>
#>  1 CMP-01  Acknowledgement 2025-01-06 09:00:00 2025-01-07 09:00:00         86400
#>  2 CMP-01  Triage          2025-01-07 09:00:00 2025-01-08 09:00:00         86400
#>  3 CMP-01  Assigned        2025-01-08 09:00:00 2025-01-09 09:00:00         86400
#>  4 CMP-01  Under review    2025-01-09 09:00:00 2025-01-12 09:00:00        259200
#>  5 CMP-01  Senior review   2025-01-12 09:00:00 2025-01-14 09:00:00        172800
#>  6 CMP-02  Acknowledgement 2025-01-06 09:00:00 2025-01-06 21:00:00         43200
#>  7 CMP-02  Triage          2025-01-06 21:00:00 2025-01-07 09:00:00         43200
#>  8 CMP-02  Assigned        2025-01-07 09:00:00 2025-01-07 21:00:00         43200
#>  9 CMP-02  Under review    2025-01-07 21:00:00 2025-01-09 09:00:00        129600
#> 10 CMP-02  Senior review   2025-01-09 09:00:00 2025-01-10 09:00:00         86400
#> # ℹ 28 more rows
#> # ℹ 2 more variables: end_inferred <lgl>, terminal <lgl>
```
